%YAML 1.1
%TAG !u! tag:unity3d.com,2011:
--- !u!114 &11400000
MonoBehaviour:
  m_ObjectHideFlags: 0
  m_CorrespondingSourceObject: {fileID: 0}
  m_PrefabInstance: {fileID: 0}
  m_PrefabAsset: {fileID: 0}
  m_GameObject: {fileID: 0}
  m_Enabled: 1
  m_EditorHideFlags: 0
  m_Script: {fileID: 11500000, guid: 77e971ee6eb029648b839d31cc3cb4e3, type: 3}
  m_Name: Default Shirt
  m_EditorClassIdentifier: 
  name: Default Shirt
  icon: {fileID: 0}
  isDefaultItem: 1
  m_mesh: {fileID: 6837386234720534900, guid: cae8759913277ad4dba9e2816f6f9339, type: 3}
  equipSlot: 1
  m_converedMeshRegions: 0100000002000000
  m_armorModifier: 0
  m_damageModifier: 0
